%YAML 1.1
%TAG !u! tag:unity3d.com,2011:
--- !u!114 &11400000
MonoBehaviour:
  m_ObjectHideFlags: 0
  m_CorrespondingSourceObject: {fileID: 0}
  m_PrefabInstance: {fileID: 0}
  m_PrefabAsset: {fileID: 0}
  m_GameObject: {fileID: 0}
  m_Enabled: 1
  m_EditorHideFlags: 0
  m_Script: {fileID: 11500000, guid: e9620f8c34305754d8cc9a7e49e852d9, type: 3}
  m_Name: Questions_ru
  m_EditorClassIdentifier: 
  m_LocaleId:
    m_Code: ru
  m_SharedData: {fileID: 11400000, guid: e29b852f5c57643f5afa1647bba0e0c6, type: 2}
  m_Metadata:
    m_Items: []
  m_TableData:
  - m_Id: 83092299776
    m_Localized: "\u0412\u043E\u043F\u0440\u043E\u0441 1"
    m_Metadata:
      m_Items: []
  - m_Id: 323249758208
    m_Localized: "\u0412\u043E\u043F\u0440\u043E\u0441 2"
    m_Metadata:
      m_Items: []
  - m_Id: 372243423232
    m_Localized: "\u0412\u043E\u043F\u0440\u043E\u0441 3"
    m_Metadata:
      m_Items: []
  - m_Id: 534210666496
    m_Localized: "\u0432\u043E\u043F\u0440\u043E\u0441 1 \u043E\u0442\u0432\u0435\u0442
      1"
    m_Metadata:
      m_Items: []
  - m_Id: 722744631296
    m_Localized: "\u0432\u043E\u043F\u0440\u043E\u0441 1 \u043E\u0442\u0432\u0435\u0442
      2"
    m_Metadata:
      m_Items: []
  - m_Id: 773571207168
    m_Localized: "\u0432\u043E\u043F\u0440\u043E\u0441 1 \u043E\u0442\u0432\u0435\u0442
      3"
    m_Metadata:
      m_Items: []
  references:
    version: 2
    RefIds: []
