%YAML 1.1
%TAG !u! tag:unity3d.com,2011:
--- !u!114 &11400000
MonoBehaviour:
  m_ObjectHideFlags: 0
  m_CorrespondingSourceObject: {fileID: 0}
  m_PrefabInstance: {fileID: 0}
  m_PrefabAsset: {fileID: 0}
  m_GameObject: {fileID: 0}
  m_Enabled: 1
  m_EditorHideFlags: 0
  m_Script: {fileID: 11500000, guid: e9620f8c34305754d8cc9a7e49e852d9, type: 3}
  m_Name: UserInterface_de
  m_EditorClassIdentifier: 
  m_LocaleId:
    m_Code: de
  m_SharedData: {fileID: 11400000, guid: 40947eae1df2a4993a12d016c9ae2c3b, type: 2}
  m_Metadata:
    m_Items:
    - rid: 8160396643721543683
  m_TableData:
  - m_Id: 26687299584
    m_Localized: 'Ergebnis: {0}'
    m_Metadata:
      m_Items:
      - rid: 8160396643721543683
  - m_Id: 4562894184448
    m_Localized: Genau!
    m_Metadata:
      m_Items: []
  - m_Id: 5218262573056
    m_Localized: Gewinnen!
    m_Metadata:
      m_Items: []
  - m_Id: 5626208968704
    m_Localized: zum fortfahren anklicken
    m_Metadata:
      m_Items: []
  - m_Id: 730244645380096
    m_Localized: Laden...
    m_Metadata:
      m_Items: []
  - m_Id: 735489437982720
    m_Localized: "W\xE4hlen Sie ein Quiz"
    m_Metadata:
      m_Items: []
  - m_Id: 1042442550763520
    m_Localized: Zahlen
    m_Metadata:
      m_Items: []
  - m_Id: 1042728375803904
    m_Localized: "Haben Sie die Zahlen vergessen? Lasst uns \xFCben!"
    m_Metadata:
      m_Items: []
  - m_Id: 3172976978550784
    m_Localized: "Pr\xFCfung"
    m_Metadata:
      m_Items: []
  - m_Id: 3173207497498624
    m_Localized: Test-Quiz
    m_Metadata:
      m_Items: []
  - m_Id: 10033592435466240
    m_Localized: Musik Aktiviert
    m_Metadata:
      m_Items: []
  - m_Id: 10034241529176064
    m_Localized: "Musik Lautst\xE4rke"
    m_Metadata:
      m_Items: []
  - m_Id: 10035048995610624
    m_Localized: Sfx Aktiviert
    m_Metadata:
      m_Items: []
  - m_Id: 10084653288382464
    m_Localized: Sprache
    m_Metadata:
      m_Items: []
  references:
    version: 2
    RefIds:
    - rid: 8160396643721543683
      type: {class: SmartFormatTag, ns: UnityEngine.Localization.Metadata, asm: Unity.Localization}
      data:
        m_Entries: 00e0af3606000000
